[
    {
        "label": "New Request",
        "icon": "k-i-marker-pin-target"
    },
    {
        "label": "Wait for Approve",
        "icon": "k-i-user"
    },
    {
        "label": "Waiting for print Quotation",
        "icon": "k-i-user"
    },
    {
        "label": "Waiting for Customer Sing Quotation",
        "icon": "k-i-user"
    },
    {
        "label": "Update Customer to SAP",
        "icon": "k-i-user"
    },
    {
        "label": "Accounting Process",
        "icon": "k-i-user"
    },
    {
        "label": "Wait for Crate Contract Document",
        "isValid": true
    }
  ]